{
  "title": "Collections",
  "description": [
    "Groups of `items` and/or `elements`. Collections MUST have a parent wrapper surrounding one or many `items` and/or `elements`."
  ],
  "sections": [
    {
      "key": "boxwrap",
      "title": "Box Wrap",
      "description": [
        "Container for filters and boxes with inner (usings `rows`)."
      ],
      "file": "/src/scss/03_collections/_boxes.scss",
      "display": true
    },
    {
      "key": "nav",
      "title": "Navigation",
      "description": [
        "Sites main navigation."
      ],
      "file": "/src/scss/03_collections/_navs.scss",
      "display": true
    },
    {
      "key": "pagination",
      "title": "Pagination",
      "description": [
        "A type of nav."
      ],
      "file": "/src/scss/03_collections/_navs.scss",
      "display": true
    },
    {
      "key": "summaries",
      "title": "Summaries",
      "description": [
        "MUST extend the %summary generic. Can be standalone pieces of content or belong to an ordered list (`summary-list`). When linked use the `%underlineAnimation` placeholder for the `summary__heading`."
      ],
      "file": "/src/scss/03_collections/_summaries.scss",
      "display": true
    },
    {
      "key": "heroes",
      "title": "Heroes",
      "description": [
        "MUST extend the `%hero` generic."
      ],
      "file": "/src/scss/03_collections/_heroes.scss",
      "display": true
    },
    {
      "key": "boxes",
      "title": "Boxes",
      "description": [
        "MUST extend the `%box` generic. Boxes MUST use child box element (ie. don't use `.box p` but rather `.box .box__text`)."
      ],
      "file": "/src/scss/03_collections/_boxes.scss",
      "display": true
    },
    {
      "key": "cards",
      "title": "Cards",
      "description": [
        "MUST extend the `%card` generic. Cards are simpler boxes that do not contain child card elements, but instead contain items or elements."
      ],
      "file": "/src/scss/03_collections/_cards.scss",
      "display": true
    },
    {
      "key": "dropdowns",
      "title": "Dropdowns",
      "description": [
        "MUST be a wrapper containing an `item` that extends `%btn`, a list element, and an `arrow`"
      ],
      "file": "/src/scss/03_collections/_btngroups.scss",
      "display": true
    },
    {
      "key": "formgroups",
      "title": "Form Groups",
      "description": [
        "Alternatives to fieldsets. Submit buttons/inputs SHOULD use classes that extend `%btn` instead of being styled directly."
      ],
      "file": "/src/scss/03_collections/_formgroups.scss",
      "display": true
    },
    {
      "key": "sessionsummary",
      "title": "Session Summary",
      "description": [
        ""
      ],
      "file": "/src/scss/03_collections/_formgroups.scss",
      "display": true
    }
  ]
}
